{
  "working":{
    "ErrorApp":"error",
    "IndexApp":"index",
    "siteName":"Gyural",
    "uri":"http://localhost:8888",
    "uriLogin":"/login",
    "uploadPath":"upl/",
    "mysql":"mysql://root:root@localhost/gyural",
    "sendmail":"php",
    "tablesPrefix":"",
    "supportMail":"federico.quagliotto@gmail.com",
    "mail":"federico.quagliotto@gmail.com",
    "ssl":"0",
    "dev":"0",
    "logStack":"0",
    "db":1,
    "version":"1.9",
    "online":1,
    "cdn":"/cdn/"
  }
}